G04 DipTrace 3.3.1.3*
G04 RapidFire.gbl*
%MOMM*%
G04 #@! TF.FileFunction,Copper,L2,Bot*
G04 #@! TF.Part,Single*
G04 #@! TA.AperFunction,Conductor*
%ADD10C,0.25*%
G04 #@! TA.AperFunction,ViaPad*
%ADD14C,1.0*%
G04 #@! TA.AperFunction,Conductor*
%ADD16C,0.5*%
G04 #@! TA.AperFunction,CopperBalancing*
%ADD18C,0.1*%
%ADD19C,0.33*%
G04 #@! TA.AperFunction,ComponentPad*
%ADD23R,1.5X1.5*%
%ADD24C,1.5*%
%ADD25R,1.5X1.7*%
%ADD26O,1.5X1.7*%
%ADD29O,2.5X4.0*%
%FSLAX35Y35*%
G04*
G71*
G90*
G75*
G01*
G04 Bottom*
%LPD*%
X-1492250Y539750D2*
D16*
X-1453947Y501447D1*
X-353880D1*
X-350327Y505000D1*
X-377530D1*
X475890Y-1073117D2*
D14*
Y-947553D1*
X162373Y-634037D1*
X-239483D1*
X-438767Y-434753D1*
Y183340D1*
X343440Y965547D1*
X221890Y-1073117D2*
D10*
X214997D1*
Y-1083517D1*
X-298523D1*
Y-1130327D1*
X-674627D1*
X-1076710Y-728243D1*
X-1492250D1*
Y-222250D1*
X221890Y-1073117D2*
Y-1197950D1*
X1356197D1*
Y-618223D1*
X400087D1*
X190000Y-408137D1*
Y-225000D1*
X1189190Y824463D2*
X350250Y-14477D1*
X227510D1*
X190000Y-51987D1*
Y-225000D1*
X-625873Y-80583D2*
Y-1017863D1*
D14*
X-377530Y505000D3*
X343440Y965547D3*
X1189190Y824463D3*
X-625873Y-80583D3*
Y-1017863D3*
D3*
X-1575471Y1359333D2*
D18*
X1632998D1*
X-1585139Y1349667D2*
X1632998D1*
X-1594807Y1340000D2*
X1632998D1*
X-1604475Y1330333D2*
X1632998D1*
X-1614143Y1320667D2*
X1632998D1*
X-1623811Y1311000D2*
X1632998D1*
X-1632990Y1301333D2*
X1632998D1*
X-1632990Y1291667D2*
X1632998D1*
X-1632990Y1282000D2*
X1632998D1*
X-1632990Y1272333D2*
X1632998D1*
X-1632990Y1262667D2*
X1632998D1*
X-1632990Y1253000D2*
X1632998D1*
X-1632990Y1243333D2*
X1632998D1*
X-1632990Y1233667D2*
X1632998D1*
X-1632990Y1224000D2*
X1632998D1*
X-1632990Y1214333D2*
X1632998D1*
X-1632990Y1204667D2*
X1632998D1*
X-1632990Y1195000D2*
X1632998D1*
X-1632990Y1185333D2*
X1632998D1*
X-1632990Y1175667D2*
X1632998D1*
X-1632990Y1166000D2*
X1632998D1*
X-1632990Y1156333D2*
X1632998D1*
X-1632990Y1146667D2*
X1632998D1*
X-1632990Y1137000D2*
X1632998D1*
X-1632990Y1127333D2*
X1632998D1*
X-1632990Y1117667D2*
X1632998D1*
X-1632990Y1108000D2*
X1632998D1*
X-1632990Y1098333D2*
X1632998D1*
X-1632990Y1088667D2*
X1632998D1*
X-1632990Y1079000D2*
X1632998D1*
X-1632990Y1069333D2*
X1632998D1*
X-1632990Y1059667D2*
X1632998D1*
X-1632990Y1050000D2*
X316318D1*
X370564D2*
X1632998D1*
X-1632990Y1040333D2*
X295303D1*
X391580D2*
X1632998D1*
X-1632990Y1030667D2*
X282666D1*
X404217D2*
X1632998D1*
X-1632990Y1021000D2*
X272881D1*
X413279D2*
X1632998D1*
X-1632990Y1011333D2*
X263213D1*
X420057D2*
X1632998D1*
X-1632990Y1001667D2*
X253545D1*
X425115D2*
X1632998D1*
X-1632990Y992000D2*
X243877D1*
X428787D2*
X1632998D1*
X-1632990Y982333D2*
X234209D1*
X431229D2*
X1632998D1*
X-1632990Y972667D2*
X224541D1*
X432557D2*
X1632998D1*
X-1632990Y963000D2*
X214873D1*
X432811D2*
X1632998D1*
X-1632990Y953333D2*
X205205D1*
X431990D2*
X1632998D1*
X-1632990Y943667D2*
X195537D1*
X430096D2*
X1632998D1*
X-1632990Y934000D2*
X185869D1*
X427029D2*
X1632998D1*
X-1632990Y924333D2*
X176201D1*
X422654D2*
X1632998D1*
X-1632990Y914667D2*
X166553D1*
X416736D2*
X1632998D1*
X-1632990Y905000D2*
X156885D1*
X408846D2*
X1632998D1*
X-1632990Y895333D2*
X147217D1*
X399236D2*
X1632998D1*
X-1632990Y885667D2*
X137549D1*
X389568D2*
X1632998D1*
X-1632990Y876000D2*
X127881D1*
X379900D2*
X1632998D1*
X-1632990Y866333D2*
X118213D1*
X370252D2*
X1632998D1*
X-1632990Y856667D2*
X108545D1*
X360584D2*
X1632998D1*
X-1632990Y847000D2*
X98877D1*
X350916D2*
X1632998D1*
X-1632990Y837333D2*
X89209D1*
X341248D2*
X1632998D1*
X-1632990Y827667D2*
X79541D1*
X331580D2*
X1632998D1*
X-1632990Y818000D2*
X69873D1*
X321912D2*
X1632998D1*
X-1632990Y808333D2*
X60205D1*
X312244D2*
X1632998D1*
X-1632990Y798667D2*
X50537D1*
X302576D2*
X1632998D1*
X-1632990Y789000D2*
X40869D1*
X292908D2*
X1632998D1*
X-1632990Y779333D2*
X31201D1*
X283240D2*
X1632998D1*
X-1632990Y769667D2*
X21553D1*
X273572D2*
X1632998D1*
X-1632990Y760000D2*
X11885D1*
X263904D2*
X1632998D1*
X-1632990Y750333D2*
X2217D1*
X254236D2*
X1632998D1*
X-1632990Y740667D2*
X-7451D1*
X244568D2*
X1632998D1*
X-1632990Y731000D2*
X-17119D1*
X234900D2*
X1632998D1*
X-1632990Y721333D2*
X-26787D1*
X225252D2*
X1632998D1*
X-1632990Y711667D2*
X-36455D1*
X215584D2*
X1632998D1*
X-1632990Y702000D2*
X-46123D1*
X205916D2*
X1632998D1*
X-1632990Y692333D2*
X-55791D1*
X196248D2*
X1632998D1*
X-1632990Y682667D2*
X-65459D1*
X186580D2*
X1632998D1*
X-1632990Y673000D2*
X-75127D1*
X176912D2*
X1632998D1*
X-1632990Y663333D2*
X-84795D1*
X167244D2*
X1632998D1*
X-1632990Y653667D2*
X-94463D1*
X157576D2*
X1632998D1*
X-1632990Y644000D2*
X-1606650D1*
X-1377854D2*
X-104131D1*
X147908D2*
X1632998D1*
X-1632990Y634333D2*
X-1606650D1*
X-1377854D2*
X-113799D1*
X138240D2*
X1632998D1*
X-1632990Y624667D2*
X-1606650D1*
X-1377854D2*
X-123447D1*
X128572D2*
X1632998D1*
X-1632990Y615000D2*
X-1606650D1*
X-1377854D2*
X-133115D1*
X118904D2*
X1632998D1*
X-1632990Y605333D2*
X-1606650D1*
X-1377854D2*
X-142783D1*
X109236D2*
X1632998D1*
X-1632990Y595667D2*
X-1606650D1*
X-1377854D2*
X-152451D1*
X99568D2*
X1632998D1*
X-1632990Y586000D2*
X-1606650D1*
X-1377854D2*
X-413936D1*
X-341115D2*
X-162119D1*
X89900D2*
X1632998D1*
X-1632990Y576333D2*
X-1606650D1*
X-1377854D2*
X-430752D1*
X-324318D2*
X-171787D1*
X80252D2*
X1632998D1*
X-1632990Y566667D2*
X-1606650D1*
X-1377854D2*
X-441865D1*
X-313186D2*
X-181455D1*
X70584D2*
X1632998D1*
X-1632990Y557000D2*
X-1606650D1*
X-305041D2*
X-191123D1*
X60916D2*
X1632998D1*
X-1632990Y547333D2*
X-1606650D1*
X-298928D2*
X-200791D1*
X51248D2*
X1632998D1*
X-1632990Y537667D2*
X-1606650D1*
X-294396D2*
X-210459D1*
X41580D2*
X1632998D1*
X-1632990Y528000D2*
X-1606650D1*
X-290236D2*
X-220127D1*
X31912D2*
X1632998D1*
X-1632990Y518333D2*
X-1606650D1*
X-287346D2*
X-229795D1*
X22244D2*
X1632998D1*
X-1632990Y508667D2*
X-1606650D1*
X-286037D2*
X-239463D1*
X12576D2*
X1632998D1*
X-1632990Y499000D2*
X-1606650D1*
X-286213D2*
X-249131D1*
X2908D2*
X1632998D1*
X-1632990Y489333D2*
X-1606650D1*
X-287893D2*
X-258799D1*
X-6760D2*
X1632998D1*
X-1632990Y479667D2*
X-1606650D1*
X-291213D2*
X-268447D1*
X-16428D2*
X1632998D1*
X-1632990Y470000D2*
X-1606650D1*
X-295354D2*
X-278115D1*
X-26096D2*
X1632998D1*
X-1632990Y460333D2*
X-1606650D1*
X-300236D2*
X-287783D1*
X-35764D2*
X1632998D1*
X-1632990Y450667D2*
X-1606650D1*
X-306799D2*
X-297451D1*
X-45432D2*
X1632998D1*
X-1632990Y441000D2*
X-1606650D1*
X-315549D2*
X-307119D1*
X-55100D2*
X1632998D1*
X-1632990Y431333D2*
X-1606650D1*
X-1377854D2*
X-427393D1*
X-327658D2*
X-316787D1*
X-64748D2*
X1632998D1*
X-1632990Y421667D2*
X-408037D1*
X-347033D2*
X-326455D1*
X-74416D2*
X1632998D1*
X-1632990Y412000D2*
X-336123D1*
X-84084D2*
X1632998D1*
X-1632990Y402333D2*
X-345791D1*
X-93752D2*
X1632998D1*
X-1632990Y392667D2*
X-1531045D1*
X-1453459D2*
X-355459D1*
X-103420D2*
X1632998D1*
X-1632990Y383000D2*
X-1551572D1*
X-1432932D2*
X-365127D1*
X-113088D2*
X1632998D1*
X-1632990Y373333D2*
X-1565283D1*
X-1419221D2*
X-374795D1*
X-122756D2*
X1632998D1*
X-1632990Y363667D2*
X-1575635D1*
X-1408850D2*
X-384463D1*
X-132424D2*
X1632998D1*
X-1632990Y354000D2*
X-1583818D1*
X-1400686D2*
X-394131D1*
X-142092D2*
X1632998D1*
X-1632990Y344333D2*
X-1590342D1*
X-1394162D2*
X-403799D1*
X-151760D2*
X1632998D1*
X-1632990Y334667D2*
X-1595557D1*
X-1388947D2*
X-413447D1*
X-161428D2*
X1632998D1*
X-1632990Y325000D2*
X-1599639D1*
X-1384865D2*
X-423115D1*
X-171096D2*
X1632998D1*
X-1632990Y315333D2*
X-1602725D1*
X-1381779D2*
X-432783D1*
X-180764D2*
X1632998D1*
X-1632990Y305667D2*
X-1604893D1*
X-1379611D2*
X-442451D1*
X-190432D2*
X1632998D1*
X-1632990Y296000D2*
X-1606182D1*
X-1378322D2*
X-452119D1*
X-200100D2*
X1632998D1*
X-1632990Y286333D2*
X-1606650D1*
X-1377854D2*
X-461787D1*
X-209748D2*
X1632998D1*
X-1632990Y276667D2*
X-1606279D1*
X-1378205D2*
X-471455D1*
X-219416D2*
X1632998D1*
X-1632990Y267000D2*
X-1605088D1*
X-1379416D2*
X-481123D1*
X-229084D2*
X1632998D1*
X-1632990Y257333D2*
X-1603037D1*
X-1381467D2*
X-490791D1*
X-238752D2*
X1632998D1*
X-1632990Y247667D2*
X-1600068D1*
X-1384436D2*
X-500459D1*
X-248420D2*
X1632998D1*
X-1632990Y238000D2*
X-1596104D1*
X-1388400D2*
X-509248D1*
X-258088D2*
X1632998D1*
X-1632990Y228333D2*
X-1591045D1*
X-1393459D2*
X-515869D1*
X-267756D2*
X1632998D1*
X-1632990Y218667D2*
X-1584678D1*
X-1399826D2*
X-520811D1*
X-277424D2*
X1632998D1*
X-1632990Y209000D2*
X-1576729D1*
X-1407775D2*
X-524365D1*
X-287092D2*
X1632998D1*
X-1632990Y199333D2*
X-1566670D1*
X-1417814D2*
X-526709D1*
X-296760D2*
X1632998D1*
X-1632990Y189667D2*
X-1553486D1*
X-1431018D2*
X-527939D1*
X-306428D2*
X1632998D1*
X-1632990Y180000D2*
X-1534189D1*
X-1450314D2*
X-528174D1*
X-316096D2*
X1632998D1*
X-1632990Y170333D2*
X-528174D1*
X-325764D2*
X1632998D1*
X-1632990Y160667D2*
X-528174D1*
X-335432D2*
X1632998D1*
X-1632990Y151000D2*
X-528174D1*
X-345100D2*
X1632998D1*
X-1632990Y141333D2*
X-1522432D1*
X-1462072D2*
X-528174D1*
X-349357D2*
X1632998D1*
X-1632990Y131667D2*
X-1546885D1*
X-1437619D2*
X-528174D1*
X-349357D2*
X1632998D1*
X-1632990Y122000D2*
X-1561904D1*
X-1422580D2*
X-528174D1*
X-349357D2*
X1632998D1*
X-1632990Y112333D2*
X-1573037D1*
X-1411467D2*
X-528174D1*
X-349357D2*
X1632998D1*
X-1632990Y102667D2*
X-1581748D1*
X-1402756D2*
X-528174D1*
X-349357D2*
X1632998D1*
X-1632990Y93000D2*
X-1588682D1*
X-1395822D2*
X-528174D1*
X-349357D2*
X1632998D1*
X-1632990Y83333D2*
X-1594248D1*
X-1390256D2*
X-528174D1*
X-349357D2*
X1632998D1*
X-1632990Y73667D2*
X-1598623D1*
X-1385881D2*
X-528174D1*
X-349357D2*
X1632998D1*
X-1632990Y64000D2*
X-1601963D1*
X-1382541D2*
X-528174D1*
X-349357D2*
X1632998D1*
X-1632990Y54333D2*
X-1604385D1*
X-1380119D2*
X-528174D1*
X-349357D2*
X1632998D1*
X-1632990Y44667D2*
X-1605908D1*
X-1378596D2*
X-528174D1*
X-349357D2*
X1632998D1*
X-1632990Y35000D2*
X-1606611D1*
X-1377893D2*
X-528174D1*
X-349357D2*
X1632998D1*
X-1632990Y25333D2*
X-1606475D1*
X-1378029D2*
X-528174D1*
X-349357D2*
X1632998D1*
X-1632990Y15667D2*
X-1605498D1*
X-1379006D2*
X-528174D1*
X-349357D2*
X1632998D1*
X-1632990Y6000D2*
X-1603682D1*
X-1380803D2*
X-644697D1*
X-607053D2*
X-528174D1*
X-349357D2*
X-194619D1*
X-95393D2*
X1075381D1*
X1174607D2*
X1632998D1*
X-1632990Y-3667D2*
X-1600986D1*
X-1383518D2*
X-670439D1*
X-581311D2*
X-528174D1*
X-349357D2*
X-218701D1*
X-71291D2*
X1051299D1*
X1198709D2*
X1632998D1*
X-1632990Y-13333D2*
X-1597295D1*
X-1387189D2*
X-684248D1*
X-567502D2*
X-528174D1*
X-349357D2*
X-235557D1*
X-54436D2*
X1034443D1*
X1215564D2*
X1632998D1*
X-1632990Y-23000D2*
X-1592549D1*
X-1391936D2*
X-693955D1*
X-557795D2*
X-528174D1*
X-349357D2*
X-248818D1*
X-41193D2*
X1021182D1*
X1228807D2*
X1632998D1*
X-1632990Y-32667D2*
X-1586572D1*
X-1397932D2*
X-701162D1*
X-550588D2*
X-528174D1*
X-349357D2*
X-259717D1*
X-30275D2*
X1010283D1*
X1239725D2*
X1632998D1*
X-1632990Y-42333D2*
X-1579111D1*
X-1405393D2*
X-706572D1*
X-545178D2*
X-528174D1*
X-349357D2*
X-268916D1*
X-21096D2*
X1001084D1*
X1248904D2*
X1632998D1*
X-1632990Y-52000D2*
X-1569697D1*
X-1414787D2*
X-710518D1*
X-541213D2*
X-528174D1*
X-349357D2*
X-276748D1*
X-13244D2*
X993252D1*
X1256756D2*
X1632998D1*
X-1632990Y-61667D2*
X-1557529D1*
X-1426955D2*
X-713232D1*
X-538518D2*
X-528174D1*
X-349357D2*
X-283467D1*
X-6525D2*
X986533D1*
X1263475D2*
X1632998D1*
X-1632990Y-71333D2*
X-1540518D1*
X-1443986D2*
X-714795D1*
X-536955D2*
X-528174D1*
X-349357D2*
X-289209D1*
X-783D2*
X980791D1*
X1269217D2*
X1632998D1*
X-1632990Y-81000D2*
X-1505381D1*
X-1479123D2*
X-715264D1*
X-536467D2*
X-528174D1*
X-349357D2*
X-294111D1*
X4119D2*
X975889D1*
X1274119D2*
X1632998D1*
X-1632990Y-90667D2*
X-714697D1*
X-537053D2*
X-528174D1*
X-349357D2*
X-298252D1*
X8240D2*
X971748D1*
X1278240D2*
X1632998D1*
X-1632990Y-100333D2*
X-713037D1*
X-538713D2*
X-528174D1*
X-349357D2*
X-301670D1*
X11678D2*
X968330D1*
X1281678D2*
X1632998D1*
X-1632990Y-110000D2*
X-1509365D1*
X-1475139D2*
X-710244D1*
X-541506D2*
X-528174D1*
X-349357D2*
X-304424D1*
X14432D2*
X965576D1*
X1284432D2*
X1632998D1*
X-1632990Y-119667D2*
X-1541592D1*
X-1442912D2*
X-706162D1*
X-545588D2*
X-528174D1*
X-349357D2*
X-306553D1*
X16561D2*
X75596D1*
X304393D2*
X447002D1*
X533006D2*
X747002D1*
X833006D2*
X963447D1*
X1286561D2*
X1632998D1*
X-1632990Y-129333D2*
X-1558252D1*
X-1426232D2*
X-700615D1*
X-551135D2*
X-528174D1*
X-349357D2*
X-308096D1*
X18084D2*
X75596D1*
X304393D2*
X428115D1*
X551893D2*
X728115D1*
X851893D2*
X961904D1*
X1288084D2*
X1632998D1*
X-1632990Y-139000D2*
X-1570244D1*
X-1414260D2*
X-693213D1*
X-558518D2*
X-528174D1*
X-349357D2*
X-309033D1*
X19021D2*
X75596D1*
X304393D2*
X415088D1*
X564920D2*
X715088D1*
X864920D2*
X960967D1*
X1289021D2*
X1632998D1*
X-1632990Y-148667D2*
X-1579541D1*
X-1404963D2*
X-683252D1*
X-568498D2*
X-528174D1*
X-349357D2*
X-309404D1*
X19393D2*
X75596D1*
X304393D2*
X405146D1*
X574861D2*
X705146D1*
X874861D2*
X960596D1*
X1289393D2*
X1632998D1*
X-1632990Y-158333D2*
X-1586924D1*
X-1397580D2*
X-677783D1*
X-573967D2*
X-528174D1*
X-349357D2*
X-309404D1*
X19393D2*
X75596D1*
X304393D2*
X397275D1*
X582732D2*
X697275D1*
X882732D2*
X960596D1*
X1289393D2*
X1632998D1*
X-1632990Y-168000D2*
X-1592822D1*
X-1391662D2*
X-677783D1*
X-573967D2*
X-528174D1*
X-349357D2*
X-309404D1*
X19393D2*
X75596D1*
X304393D2*
X390967D1*
X589041D2*
X690967D1*
X889041D2*
X960596D1*
X1289393D2*
X1632998D1*
X-1632990Y-177667D2*
X-1597510D1*
X-1386975D2*
X-677783D1*
X-573967D2*
X-528174D1*
X-349357D2*
X-309404D1*
X19393D2*
X75596D1*
X304393D2*
X385947D1*
X594041D2*
X685947D1*
X894041D2*
X960596D1*
X1289393D2*
X1632998D1*
X-1632990Y-187333D2*
X-1601143D1*
X-1383361D2*
X-677783D1*
X-573967D2*
X-528174D1*
X-349357D2*
X-309404D1*
X19393D2*
X75596D1*
X304393D2*
X382041D1*
X597967D2*
X682041D1*
X897967D2*
X960596D1*
X1289393D2*
X1632998D1*
X-1632990Y-197000D2*
X-1603799D1*
X-1380705D2*
X-677783D1*
X-573967D2*
X-528174D1*
X-349357D2*
X-309404D1*
X19393D2*
X75596D1*
X304393D2*
X379111D1*
X600896D2*
X679111D1*
X900896D2*
X960596D1*
X1289393D2*
X1632998D1*
X-1632990Y-206667D2*
X-1605576D1*
X-1378928D2*
X-677783D1*
X-573967D2*
X-528174D1*
X-349357D2*
X-309404D1*
X19393D2*
X75596D1*
X304393D2*
X377100D1*
X602908D2*
X677100D1*
X902908D2*
X960596D1*
X1289393D2*
X1632998D1*
X-1632990Y-216333D2*
X-1606494D1*
X-1378010D2*
X-677783D1*
X-573967D2*
X-528174D1*
X-349357D2*
X-309404D1*
X19393D2*
X75596D1*
X304393D2*
X375928D1*
X604061D2*
X675928D1*
X904061D2*
X960596D1*
X1289393D2*
X1632998D1*
X-1632990Y-226000D2*
X-1606592D1*
X-1377912D2*
X-677783D1*
X-573967D2*
X-528174D1*
X-349357D2*
X-309404D1*
X19393D2*
X75596D1*
X304393D2*
X375596D1*
X604393D2*
X675596D1*
X904393D2*
X960596D1*
X1289393D2*
X1632998D1*
X-1632990Y-235667D2*
X-1605850D1*
X-1378654D2*
X-677783D1*
X-573967D2*
X-528174D1*
X-349357D2*
X-309404D1*
X19393D2*
X75596D1*
X304393D2*
X376104D1*
X603904D2*
X676104D1*
X903904D2*
X960596D1*
X1289393D2*
X1632998D1*
X-1632990Y-245333D2*
X-1604268D1*
X-1380217D2*
X-677783D1*
X-573967D2*
X-528174D1*
X-349357D2*
X-309404D1*
X19393D2*
X75596D1*
X304393D2*
X377432D1*
X602557D2*
X677432D1*
X902557D2*
X960596D1*
X1289393D2*
X1632998D1*
X-1632990Y-255000D2*
X-1601826D1*
X-1382678D2*
X-677783D1*
X-573967D2*
X-528174D1*
X-349357D2*
X-309404D1*
X19393D2*
X75596D1*
X304393D2*
X379639D1*
X600369D2*
X679639D1*
X900369D2*
X960596D1*
X1289393D2*
X1632998D1*
X-1632990Y-264667D2*
X-1598428D1*
X-1386076D2*
X-677783D1*
X-573967D2*
X-528174D1*
X-349357D2*
X-309404D1*
X19393D2*
X75596D1*
X304393D2*
X382764D1*
X597244D2*
X682764D1*
X897244D2*
X960596D1*
X1289393D2*
X1632998D1*
X-1632990Y-274333D2*
X-1593975D1*
X-1390510D2*
X-677783D1*
X-573967D2*
X-528174D1*
X-349357D2*
X-309404D1*
X19393D2*
X75596D1*
X304393D2*
X386885D1*
X593104D2*
X686885D1*
X893104D2*
X960596D1*
X1289393D2*
X1632998D1*
X-1632990Y-284000D2*
X-1588369D1*
X-1396135D2*
X-677783D1*
X-573967D2*
X-528174D1*
X-349357D2*
X-309404D1*
X19393D2*
X75596D1*
X304393D2*
X392158D1*
X587850D2*
X692158D1*
X887850D2*
X960596D1*
X1289393D2*
X1632998D1*
X-1632990Y-293667D2*
X-1581338D1*
X-1403166D2*
X-677783D1*
X-573967D2*
X-528174D1*
X-349357D2*
X-309404D1*
X19393D2*
X75596D1*
X304393D2*
X398760D1*
X581248D2*
X698760D1*
X881248D2*
X960596D1*
X1289393D2*
X1632998D1*
X-1632990Y-303333D2*
X-1572529D1*
X-1411975D2*
X-677783D1*
X-573967D2*
X-528174D1*
X-349357D2*
X-309365D1*
X19373D2*
X75596D1*
X304393D2*
X407002D1*
X573006D2*
X707002D1*
X873006D2*
X960635D1*
X1289373D2*
X1632998D1*
X-1632990Y-313000D2*
X-1561240D1*
X-1423244D2*
X-677783D1*
X-573967D2*
X-528174D1*
X-349357D2*
X-308877D1*
X18885D2*
X75596D1*
X304393D2*
X417471D1*
X562518D2*
X717471D1*
X862518D2*
X961123D1*
X1288885D2*
X1632998D1*
X-1632990Y-322667D2*
X-1545947D1*
X-1438557D2*
X-677783D1*
X-573967D2*
X-528174D1*
X-349357D2*
X-307822D1*
X17811D2*
X75596D1*
X304393D2*
X431377D1*
X548631D2*
X731377D1*
X848631D2*
X962178D1*
X1287811D2*
X1632998D1*
X-1632990Y-332333D2*
X-1520479D1*
X-1464025D2*
X-677783D1*
X-573967D2*
X-528174D1*
X-349357D2*
X-306162D1*
X16170D2*
X75596D1*
X304393D2*
X452412D1*
X527596D2*
X752412D1*
X827596D2*
X963838D1*
X1286170D2*
X1632998D1*
X-1632990Y-342000D2*
X-677783D1*
X-573967D2*
X-528174D1*
X-349357D2*
X-303916D1*
X13904D2*
X966084D1*
X1283904D2*
X1632998D1*
X-1632990Y-351667D2*
X-677783D1*
X-573967D2*
X-528174D1*
X-349357D2*
X-301025D1*
X11014D2*
X968975D1*
X1281014D2*
X1632998D1*
X-1632990Y-361333D2*
X-677783D1*
X-573967D2*
X-528174D1*
X-349357D2*
X-297451D1*
X7459D2*
X972549D1*
X1277459D2*
X1632998D1*
X-1632990Y-371000D2*
X-677783D1*
X-573967D2*
X-528174D1*
X-349357D2*
X-293174D1*
X3162D2*
X976826D1*
X1273162D2*
X1632998D1*
X-1632990Y-380667D2*
X-677783D1*
X-573967D2*
X-528174D1*
X-349357D2*
X-288096D1*
X-1896D2*
X981904D1*
X1268104D2*
X1632998D1*
X-1632990Y-390333D2*
X-677783D1*
X-573967D2*
X-528174D1*
X-349357D2*
X-282158D1*
X-7834D2*
X987842D1*
X1262166D2*
X1632998D1*
X-1632990Y-400000D2*
X-677783D1*
X-573967D2*
X-528174D1*
X-347502D2*
X-275225D1*
X-14768D2*
X994775D1*
X1255232D2*
X1632998D1*
X-1632990Y-409667D2*
X-677783D1*
X-573967D2*
X-528174D1*
X-337834D2*
X-267139D1*
X-22873D2*
X1002861D1*
X1247127D2*
X1632998D1*
X-1632990Y-419333D2*
X-677783D1*
X-573967D2*
X-528174D1*
X-328166D2*
X-257627D1*
X-32385D2*
X1012373D1*
X1237615D2*
X1632998D1*
X-1632990Y-429000D2*
X-677783D1*
X-573967D2*
X-528174D1*
X-318498D2*
X-246299D1*
X-43713D2*
X1023701D1*
X1226287D2*
X1632998D1*
X-1632990Y-438667D2*
X-677783D1*
X-573967D2*
X-528076D1*
X-308830D2*
X-232432D1*
X-57561D2*
X1037568D1*
X1212439D2*
X1632998D1*
X-1632990Y-448333D2*
X-677783D1*
X-573967D2*
X-527119D1*
X-299162D2*
X-214541D1*
X-75471D2*
X1055459D1*
X1194529D2*
X1632998D1*
X-1632990Y-458000D2*
X-677783D1*
X-573967D2*
X-525049D1*
X-289494D2*
X-187666D1*
X-102346D2*
X1082334D1*
X1167654D2*
X1632998D1*
X-1632990Y-467667D2*
X-677783D1*
X-573967D2*
X-521807D1*
X-279846D2*
X1632998D1*
X-1632990Y-477333D2*
X-677783D1*
X-573967D2*
X-517236D1*
X-270178D2*
X1632998D1*
X-1632990Y-487000D2*
X-677783D1*
X-573967D2*
X-511084D1*
X-260510D2*
X1632998D1*
X-1632990Y-496667D2*
X-677783D1*
X-573967D2*
X-502861D1*
X-250842D2*
X1632998D1*
X-1632990Y-506333D2*
X-677783D1*
X-573967D2*
X-493213D1*
X-241174D2*
X1632998D1*
X-1632990Y-516000D2*
X-677783D1*
X-573967D2*
X-483545D1*
X-231506D2*
X1632998D1*
X-1632990Y-525667D2*
X-677783D1*
X-573967D2*
X-473877D1*
X-221838D2*
X1632998D1*
X-1632990Y-535333D2*
X-677783D1*
X-573967D2*
X-464209D1*
X-212170D2*
X1632998D1*
X-1632990Y-545000D2*
X-677783D1*
X-573967D2*
X-454541D1*
X-202502D2*
X1632998D1*
X-1632990Y-554667D2*
X-677783D1*
X-573967D2*
X-444873D1*
X202303D2*
X1632998D1*
X-1632990Y-564333D2*
X-677783D1*
X-573967D2*
X-435205D1*
X217752D2*
X1632998D1*
X-1632990Y-574000D2*
X-677783D1*
X-573967D2*
X-425537D1*
X228357D2*
X1632998D1*
X-1632990Y-583667D2*
X-677783D1*
X-573967D2*
X-415869D1*
X238025D2*
X1632998D1*
X-1632990Y-593333D2*
X-677783D1*
X-573967D2*
X-406201D1*
X247693D2*
X1632998D1*
X-1632990Y-603000D2*
X-677783D1*
X-573967D2*
X-396533D1*
X257361D2*
X1632998D1*
X-1632990Y-612667D2*
X-677783D1*
X-573967D2*
X-386865D1*
X267029D2*
X1632998D1*
X-1632990Y-622333D2*
X-677783D1*
X-573967D2*
X-377197D1*
X276678D2*
X1632998D1*
X-1632990Y-632000D2*
X-677783D1*
X-573967D2*
X-367529D1*
X286346D2*
X1632998D1*
X-1632990Y-641667D2*
X-677783D1*
X-573967D2*
X-357861D1*
X296014D2*
X1632998D1*
X-1632990Y-651333D2*
X-677783D1*
X-573967D2*
X-348213D1*
X305682D2*
X1632998D1*
X-1632990Y-661000D2*
X-677783D1*
X-573967D2*
X-338545D1*
X315350D2*
X1632998D1*
X-1632990Y-670667D2*
X-677783D1*
X-573967D2*
X-328877D1*
X325018D2*
X1632998D1*
X-1632990Y-680333D2*
X-677783D1*
X-573967D2*
X-319209D1*
X334686D2*
X1632998D1*
X-1632990Y-690000D2*
X-677783D1*
X-573967D2*
X-309541D1*
X344354D2*
X1632998D1*
X-1632990Y-699667D2*
X-677783D1*
X-573967D2*
X-299697D1*
X354021D2*
X1632998D1*
X-1632990Y-709333D2*
X-677783D1*
X-573967D2*
X-286807D1*
X363689D2*
X1632998D1*
X-1632990Y-719000D2*
X-677783D1*
X-573967D2*
X-264893D1*
X373357D2*
X1632998D1*
X-1632990Y-728667D2*
X-677783D1*
X-573967D2*
X130986D1*
X383025D2*
X1632998D1*
X-1632990Y-738333D2*
X-677783D1*
X-573967D2*
X140654D1*
X392693D2*
X1632998D1*
X-1632990Y-748000D2*
X-677783D1*
X-573967D2*
X150322D1*
X402361D2*
X1632998D1*
X-1632990Y-757667D2*
X-677783D1*
X-573967D2*
X159990D1*
X412029D2*
X1632998D1*
X-1632990Y-767333D2*
X-677783D1*
X-573967D2*
X169658D1*
X421678D2*
X1632998D1*
X-1632990Y-777000D2*
X-677783D1*
X-573967D2*
X179326D1*
X431346D2*
X1632998D1*
X-1632990Y-786667D2*
X-677783D1*
X-573967D2*
X188994D1*
X441014D2*
X1632998D1*
X-1632990Y-796333D2*
X-677783D1*
X-573967D2*
X198662D1*
X450682D2*
X1632998D1*
X-1632990Y-806000D2*
X-677783D1*
X-573967D2*
X208311D1*
X460350D2*
X1632998D1*
X-1632990Y-815667D2*
X-677783D1*
X-573967D2*
X217979D1*
X470018D2*
X1632998D1*
X-1632990Y-825333D2*
X-677783D1*
X-573967D2*
X227646D1*
X479686D2*
X1632998D1*
X-1632990Y-835000D2*
X-677783D1*
X-573967D2*
X237314D1*
X489354D2*
X1632998D1*
X-1632990Y-844667D2*
X-677783D1*
X-573967D2*
X246982D1*
X499021D2*
X1632998D1*
X-1632990Y-854333D2*
X-677783D1*
X-573967D2*
X256650D1*
X508689D2*
X1632998D1*
X-1632990Y-864000D2*
X-677783D1*
X-573967D2*
X266318D1*
X518357D2*
X1632998D1*
X-1632990Y-873667D2*
X-677783D1*
X-573967D2*
X275986D1*
X528025D2*
X1632998D1*
X-1632990Y-883333D2*
X-677783D1*
X-573967D2*
X285654D1*
X537693D2*
X1632998D1*
X-1632990Y-893000D2*
X-677783D1*
X-573967D2*
X295322D1*
X546443D2*
X1632998D1*
X-1632990Y-902667D2*
X-677783D1*
X-573967D2*
X304990D1*
X553045D2*
X1632998D1*
X-1632990Y-912333D2*
X-677783D1*
X-573967D2*
X314658D1*
X557967D2*
X1632998D1*
X-1632990Y-922000D2*
X-677783D1*
X-573967D2*
X324326D1*
X561521D2*
X1632998D1*
X-1632990Y-931667D2*
X-677783D1*
X-573967D2*
X333994D1*
X563846D2*
X1632998D1*
X-1632990Y-941333D2*
X-677783D1*
X-573967D2*
X343662D1*
X565076D2*
X1632998D1*
X-1632990Y-951000D2*
X-1539775D1*
X-1473303D2*
X-1366943D1*
X-1138146D2*
X-684697D1*
X-567053D2*
X203877D1*
X239900D2*
X353311D1*
X565291D2*
X711885D1*
X747908D2*
X965869D1*
X1001893D2*
X1219873D1*
X1255896D2*
X1377490D1*
X1606287D2*
X1632998D1*
X-1632990Y-960667D2*
X-1562744D1*
X-1450334D2*
X-1366943D1*
X-1138146D2*
X-694268D1*
X-557463D2*
X172275D1*
X271502D2*
X362979D1*
X565291D2*
X680283D1*
X779510D2*
X934268D1*
X1033514D2*
X1188271D1*
X1287498D2*
X1377490D1*
X1606287D2*
X1632998D1*
X-1632990Y-970333D2*
X-1577314D1*
X-1435764D2*
X-1366943D1*
X-1138146D2*
X-701416D1*
X-550334D2*
X155693D1*
X288084D2*
X372646D1*
X565291D2*
X663701D1*
X796092D2*
X917686D1*
X1050096D2*
X1171689D1*
X1304080D2*
X1377490D1*
X1606287D2*
X1632998D1*
X-1632990Y-980000D2*
X-1588193D1*
X-1424885D2*
X-1366943D1*
X-1138146D2*
X-706748D1*
X-545002D2*
X143740D1*
X300037D2*
X382314D1*
X565291D2*
X651748D1*
X808025D2*
X905752D1*
X1062029D2*
X1159756D1*
X1316033D2*
X1377490D1*
X1606287D2*
X1632998D1*
X-1632990Y-989667D2*
X-1596709D1*
X-1416369D2*
X-1366943D1*
X-1138146D2*
X-710654D1*
X-541096D2*
X134482D1*
X309295D2*
X386494D1*
X565291D2*
X642490D1*
X817283D2*
X896494D1*
X1071287D2*
X1150498D1*
X1325291D2*
X1377490D1*
X1606287D2*
X1632998D1*
X-1632990Y-999333D2*
X-1603525D1*
X-1409553D2*
X-1366943D1*
X-1138146D2*
X-713311D1*
X-538439D2*
X127119D1*
X316658D2*
X381123D1*
X570643D2*
X635127D1*
X824646D2*
X889131D1*
X1078650D2*
X1143135D1*
X1332654D2*
X1377490D1*
X1606287D2*
X1632998D1*
X-1632990Y-1009000D2*
X-1608955D1*
X-1404123D2*
X-1366943D1*
X-1138146D2*
X-714834D1*
X-536916D2*
X121240D1*
X322537D2*
X375244D1*
X576541D2*
X629229D1*
X830545D2*
X883232D1*
X1084549D2*
X1137236D1*
X1338553D2*
X1377490D1*
X1606287D2*
X1632998D1*
X-1632990Y-1018667D2*
X-1613252D1*
X-1399826D2*
X-1366943D1*
X-1138146D2*
X-715264D1*
X-536486D2*
X116572D1*
X327225D2*
X370557D1*
X581209D2*
X624561D1*
X835213D2*
X878564D1*
X1089217D2*
X1132568D1*
X1343221D2*
X1377490D1*
X1606287D2*
X1632998D1*
X-1632990Y-1028333D2*
X-1616514D1*
X-1396564D2*
X-1366943D1*
X-1138146D2*
X-714658D1*
X-537092D2*
X112959D1*
X330818D2*
X366963D1*
X584822D2*
X620947D1*
X838826D2*
X874951D1*
X1092830D2*
X1128955D1*
X1346814D2*
X1377490D1*
X1606287D2*
X1632998D1*
X-1632990Y-1038000D2*
X-1618838D1*
X-1394240D2*
X-1366943D1*
X-1138146D2*
X-712959D1*
X-538791D2*
X110303D1*
X333475D2*
X364307D1*
X587479D2*
X618311D1*
X841482D2*
X872314D1*
X1095467D2*
X1126299D1*
X1349471D2*
X1377490D1*
X1606287D2*
X1632998D1*
X-1632990Y-1047667D2*
X-1620303D1*
X-1392775D2*
X-1366943D1*
X-1138146D2*
X-710107D1*
X-541643D2*
X108545D1*
X335232D2*
X362549D1*
X589236D2*
X616553D1*
X843240D2*
X870557D1*
X1097225D2*
X1124541D1*
X1351229D2*
X1377490D1*
X1606287D2*
X1632998D1*
X-1632990Y-1057333D2*
X-1620908D1*
X-1392170D2*
X-1366943D1*
X-1138146D2*
X-705967D1*
X-545783D2*
X107646D1*
X336150D2*
X361631D1*
X590135D2*
X615635D1*
X844139D2*
X869639D1*
X1098143D2*
X1123643D1*
X1352146D2*
X1377490D1*
X1606287D2*
X1632998D1*
X-1632990Y-1067000D2*
X-1620947D1*
X-1392131D2*
X-1366943D1*
X-1138146D2*
X-700361D1*
X-551389D2*
X107490D1*
X336287D2*
X361494D1*
X590291D2*
X615498D1*
X844295D2*
X869482D1*
X1098299D2*
X1123486D1*
X1352283D2*
X1377490D1*
X1606287D2*
X1632998D1*
X-1632990Y-1076667D2*
X-1620947D1*
X-1392131D2*
X-1366943D1*
X-1138146D2*
X-692881D1*
X-558869D2*
X107490D1*
X336287D2*
X361494D1*
X590291D2*
X615498D1*
X844295D2*
X869482D1*
X1098299D2*
X1123486D1*
X1352283D2*
X1377490D1*
X1606287D2*
X1632998D1*
X-1632990Y-1086333D2*
X-1620752D1*
X-1392326D2*
X-1366943D1*
X-1138146D2*
X-682783D1*
X-568967D2*
X107529D1*
X336248D2*
X361533D1*
X590252D2*
X615537D1*
X844236D2*
X869541D1*
X1098240D2*
X1123545D1*
X1352244D2*
X1377490D1*
X1606287D2*
X1632998D1*
X-1632990Y-1096000D2*
X-1619775D1*
X-1393322D2*
X-1366943D1*
X-1138146D2*
X-668213D1*
X-583537D2*
X108232D1*
X335564D2*
X362217D1*
X589549D2*
X616221D1*
X843553D2*
X870225D1*
X1097557D2*
X1124229D1*
X1351561D2*
X1377490D1*
X1606287D2*
X1632998D1*
X-1632990Y-1105667D2*
X-1617939D1*
X-1395139D2*
X-1366943D1*
X-1138146D2*
X-637119D1*
X-614611D2*
X109756D1*
X334021D2*
X363760D1*
X588025D2*
X617764D1*
X842029D2*
X871748D1*
X1096033D2*
X1125752D1*
X1350018D2*
X1377490D1*
X1606287D2*
X1632998D1*
X-1632990Y-1115333D2*
X-1615205D1*
X-1397873D2*
X-1366943D1*
X-1138146D2*
X112158D1*
X331619D2*
X366162D1*
X585623D2*
X620166D1*
X839627D2*
X874170D1*
X1093611D2*
X1128154D1*
X1347615D2*
X1377490D1*
X1606287D2*
X1632998D1*
X-1632990Y-1125000D2*
X-1611514D1*
X-1401564D2*
X-1366943D1*
X-1138146D2*
X115518D1*
X328279D2*
X369502D1*
X582264D2*
X623506D1*
X836268D2*
X877510D1*
X1090271D2*
X1131514D1*
X1344275D2*
X1377490D1*
X1606287D2*
X1632998D1*
X-1632990Y-1134667D2*
X-1606748D1*
X-1406330D2*
X-1366943D1*
X-1138146D2*
X119893D1*
X323904D2*
X373877D1*
X577889D2*
X627881D1*
X831893D2*
X881885D1*
X1085896D2*
X1135889D1*
X1339900D2*
X1377490D1*
X1606287D2*
X1632998D1*
X-1632990Y-1144333D2*
X-1600732D1*
X-1412346D2*
X-1366943D1*
X-1138146D2*
X125439D1*
X318338D2*
X379424D1*
X572342D2*
X633428D1*
X826346D2*
X887432D1*
X1080350D2*
X1141436D1*
X1334354D2*
X1377490D1*
X1606287D2*
X1632998D1*
X-1632990Y-1154000D2*
X-1593232D1*
X-1419846D2*
X-1366943D1*
X-1138146D2*
X132373D1*
X311404D2*
X386377D1*
X565408D2*
X640381D1*
X819412D2*
X894365D1*
X1073396D2*
X1148369D1*
X1327400D2*
X1377490D1*
X1606287D2*
X1632998D1*
X-1632990Y-1163667D2*
X-1583779D1*
X-1429299D2*
X-1366943D1*
X-1138146D2*
X141064D1*
X302713D2*
X395068D1*
X556717D2*
X649072D1*
X810701D2*
X903076D1*
X1064705D2*
X1157061D1*
X1318709D2*
X1377490D1*
X1606287D2*
X1632998D1*
X-1632990Y-1173333D2*
X-1571553D1*
X-1441525D2*
X-1366943D1*
X-1138146D2*
X152178D1*
X291600D2*
X406182D1*
X545604D2*
X660186D1*
X799588D2*
X914189D1*
X1053592D2*
X1168193D1*
X1307596D2*
X1377490D1*
X1606287D2*
X1632998D1*
X-1632990Y-1183000D2*
X-1554365D1*
X-1458713D2*
X-1366943D1*
X-1138146D2*
X167197D1*
X276580D2*
X421201D1*
X530584D2*
X675205D1*
X784588D2*
X929189D1*
X1038592D2*
X1183193D1*
X1292576D2*
X1377490D1*
X1606287D2*
X1632998D1*
X-1632990Y-1192667D2*
X-1517705D1*
X-1495373D2*
X-1366943D1*
X-1138146D2*
X191592D1*
X252186D2*
X445596D1*
X506189D2*
X699600D1*
X760193D2*
X953584D1*
X1014197D2*
X1207588D1*
X1268182D2*
X1377490D1*
X1606287D2*
X1632998D1*
X-1632990Y-1202333D2*
X1632998D1*
X-1632990Y-1212000D2*
X1632998D1*
X-1632990Y-1221667D2*
X1632998D1*
X-1632990Y-1231333D2*
X1632998D1*
X-1632990Y-1241000D2*
X1632998D1*
X-1632990Y-1250667D2*
X1632998D1*
X-1632990Y-1260333D2*
X1632998D1*
X-1632990Y-1270000D2*
X1632998D1*
X-1632990Y-1279667D2*
X1632998D1*
X-1632990Y-1289333D2*
X1632998D1*
X-1632990Y-1299000D2*
X1632998D1*
X-1626135Y-1308667D2*
X1632998D1*
X-1616467Y-1318333D2*
X1632998D1*
X-1606799Y-1328000D2*
X1632998D1*
X-1597131Y-1337667D2*
X1632998D1*
X-1587463Y-1347333D2*
X1632998D1*
X-1577814Y-1357000D2*
X1632998D1*
X-1568146Y-1366667D2*
X1632998D1*
X-1600650Y653150D2*
X-1378850D1*
Y564849D1*
X-442599Y564847D1*
X-437988Y569493D1*
X-434245Y572808D1*
X-430321Y575906D1*
X-426229Y578777D1*
X-421980Y581412D1*
X-417589Y583802D1*
X-413071Y585941D1*
X-408438Y587821D1*
X-403707Y589435D1*
X-398892Y590780D1*
X-394008Y591851D1*
X-389072Y592643D1*
X-384099Y593156D1*
X-379105Y593386D1*
X-374106Y593334D1*
X-369118Y592999D1*
X-364157Y592383D1*
X-359238Y591487D1*
X-354378Y590314D1*
X-349592Y588869D1*
X-344896Y587156D1*
X-340304Y585180D1*
X-335831Y582947D1*
X-331491Y580465D1*
X-327298Y577742D1*
X-323267Y574786D1*
X-319408Y571607D1*
X-315736Y568214D1*
X-312261Y564620D1*
X-308995Y560835D1*
X-305948Y556871D1*
X-303131Y552742D1*
X-300551Y548460D1*
X-298217Y544038D1*
X-296137Y539492D1*
X-293836Y533783D1*
X-291752Y529262D1*
X-290029Y524592D1*
X-288678Y519801D1*
X-287707Y514918D1*
X-287122Y509974D1*
X-286926Y505000D1*
X-287122Y500026D1*
X-287707Y495082D1*
X-288678Y490199D1*
X-290029Y485408D1*
X-291752Y480738D1*
X-293846Y476200D1*
X-298026Y466351D1*
X-300338Y461918D1*
X-302897Y457624D1*
X-305695Y453480D1*
X-308722Y449502D1*
X-311970Y445701D1*
X-315427Y442089D1*
X-319082Y438679D1*
X-322925Y435481D1*
X-326942Y432506D1*
X-331121Y429762D1*
X-335449Y427259D1*
X-339911Y425004D1*
X-344493Y423005D1*
X-349181Y421269D1*
X-353960Y419800D1*
X-358814Y418604D1*
X-363728Y417684D1*
X-368686Y417043D1*
X-373673Y416684D1*
X-378672Y416607D1*
X-383667Y416813D1*
X-388642Y417301D1*
X-393582Y418070D1*
X-398471Y419116D1*
X-403292Y420437D1*
X-408031Y422029D1*
X-412673Y423886D1*
X-417202Y426002D1*
X-421605Y428371D1*
X-425866Y430985D1*
X-429973Y433836D1*
X-435190Y438035D1*
X-1378860Y438046D1*
X-1378850Y426350D1*
X-1605650D1*
Y653150D1*
X-1600650D1*
X-1378960Y280752D2*
X-1379841Y270794D1*
X-1381595Y260952D1*
X-1384208Y251303D1*
X-1387662Y241922D1*
X-1391928Y232881D1*
X-1396974Y224251D1*
X-1402761Y216099D1*
X-1409242Y208489D1*
X-1416369Y201479D1*
X-1424086Y195123D1*
X-1432332Y189472D1*
X-1441044Y184569D1*
X-1450154Y180453D1*
X-1459591Y177155D1*
X-1469282Y174700D1*
X-1479151Y173109D1*
X-1489122Y172393D1*
X-1499117Y172558D1*
X-1509060Y173603D1*
X-1518871Y175519D1*
X-1528475Y178292D1*
X-1537798Y181900D1*
X-1546767Y186315D1*
X-1555313Y191502D1*
X-1563368Y197422D1*
X-1570871Y204029D1*
X-1577762Y211270D1*
X-1583989Y219091D1*
X-1589504Y227429D1*
X-1594262Y236221D1*
X-1598228Y245398D1*
X-1601370Y254888D1*
X-1603664Y264618D1*
X-1605092Y274512D1*
X-1605643Y284493D1*
X-1605313Y294485D1*
X-1604105Y304408D1*
X-1602027Y314187D1*
X-1599096Y323744D1*
X-1595334Y333006D1*
X-1590772Y341901D1*
X-1585444Y350360D1*
X-1579392Y358316D1*
X-1572662Y365709D1*
X-1565308Y372480D1*
X-1557386Y378577D1*
X-1548958Y383953D1*
X-1540089Y388565D1*
X-1530848Y392379D1*
X-1521307Y395364D1*
X-1511541Y397497D1*
X-1501624Y398762D1*
X-1491635Y399148D1*
X-1481650Y398654D1*
X-1471748Y397281D1*
X-1462005Y395042D1*
X-1452498Y391954D1*
X-1443299Y388040D1*
X-1434480Y383332D1*
X-1426111Y377865D1*
X-1418255Y371682D1*
X-1410975Y364832D1*
X-1404326Y357367D1*
X-1398361Y349345D1*
X-1393125Y340829D1*
X-1388659Y331885D1*
X-1384998Y322583D1*
X-1382171Y312994D1*
X-1380200Y303194D1*
X-1379099Y293258D1*
X-1378850Y285750D1*
X-1378960Y280752D1*
Y26752D2*
X-1379841Y16794D1*
X-1381595Y6952D1*
X-1384208Y-2697D1*
X-1387662Y-12078D1*
X-1391928Y-21119D1*
X-1396974Y-29749D1*
X-1402761Y-37901D1*
X-1409242Y-45511D1*
X-1416369Y-52521D1*
X-1424086Y-58877D1*
X-1432332Y-64528D1*
X-1441044Y-69431D1*
X-1450154Y-73547D1*
X-1459591Y-76845D1*
X-1469282Y-79300D1*
X-1479151Y-80891D1*
X-1489122Y-81607D1*
X-1499117Y-81442D1*
X-1509060Y-80397D1*
X-1518871Y-78481D1*
X-1528475Y-75708D1*
X-1537798Y-72100D1*
X-1546767Y-67685D1*
X-1555313Y-62498D1*
X-1563368Y-56578D1*
X-1570871Y-49971D1*
X-1577762Y-42730D1*
X-1583989Y-34909D1*
X-1589504Y-26571D1*
X-1594262Y-17779D1*
X-1598228Y-8602D1*
X-1601370Y888D1*
X-1603664Y10618D1*
X-1605092Y20512D1*
X-1605643Y30493D1*
X-1605313Y40485D1*
X-1604105Y50408D1*
X-1602027Y60187D1*
X-1599096Y69744D1*
X-1595334Y79006D1*
X-1590772Y87901D1*
X-1585444Y96360D1*
X-1579392Y104316D1*
X-1572662Y111709D1*
X-1565308Y118480D1*
X-1557386Y124577D1*
X-1548958Y129953D1*
X-1540089Y134565D1*
X-1530848Y138379D1*
X-1521307Y141364D1*
X-1511541Y143497D1*
X-1501624Y144762D1*
X-1491635Y145148D1*
X-1481650Y144654D1*
X-1471748Y143281D1*
X-1462005Y141042D1*
X-1452498Y137954D1*
X-1443299Y134040D1*
X-1434480Y129332D1*
X-1426111Y123865D1*
X-1418255Y117682D1*
X-1410975Y110832D1*
X-1404326Y103367D1*
X-1398361Y95345D1*
X-1393125Y86829D1*
X-1388659Y77885D1*
X-1384998Y68583D1*
X-1382171Y58994D1*
X-1380200Y49194D1*
X-1379099Y39258D1*
X-1378850Y31750D1*
X-1378960Y26752D1*
X-1378854Y-223250D2*
X-1379207Y-231241D1*
X-1380122Y-239186D1*
X-1381595Y-247048D1*
X-1383618Y-254786D1*
X-1386181Y-262363D1*
X-1389273Y-269739D1*
X-1392876Y-276880D1*
X-1396974Y-283749D1*
X-1401546Y-290312D1*
X-1406569Y-296536D1*
X-1412019Y-302391D1*
X-1417867Y-307847D1*
X-1424086Y-312877D1*
X-1430644Y-317456D1*
X-1437508Y-321562D1*
X-1444644Y-325173D1*
X-1452017Y-328273D1*
X-1459591Y-330845D1*
X-1467327Y-332877D1*
X-1475187Y-334359D1*
X-1483132Y-335283D1*
X-1491122Y-335644D1*
X-1499117Y-335442D1*
X-1507079Y-334676D1*
X-1514967Y-333351D1*
X-1522742Y-331474D1*
X-1530365Y-329053D1*
X-1537798Y-326100D1*
X-1545005Y-322631D1*
X-1551950Y-318663D1*
X-1558597Y-314215D1*
X-1564915Y-309310D1*
X-1570871Y-303971D1*
X-1576436Y-298226D1*
X-1581582Y-292103D1*
X-1586283Y-285632D1*
X-1590517Y-278846D1*
X-1594262Y-271779D1*
X-1597499Y-264465D1*
X-1600213Y-256941D1*
X-1602390Y-249245D1*
X-1604019Y-241414D1*
X-1605092Y-233488D1*
X-1605603Y-225506D1*
X-1605551Y-217508D1*
X-1604935Y-209533D1*
X-1603758Y-201622D1*
X-1602027Y-193813D1*
X-1599749Y-186146D1*
X-1596937Y-178659D1*
X-1593604Y-171388D1*
X-1589767Y-164370D1*
X-1585444Y-157640D1*
X-1580658Y-151232D1*
X-1575432Y-145177D1*
X-1569793Y-139505D1*
X-1563767Y-134245D1*
X-1557386Y-129423D1*
X-1550681Y-125062D1*
X-1543685Y-121186D1*
X-1536433Y-117811D1*
X-1528961Y-114957D1*
X-1521307Y-112636D1*
X-1513508Y-110860D1*
X-1505604Y-109639D1*
X-1497633Y-108978D1*
X-1489635Y-108880D1*
X-1481650Y-109346D1*
X-1473718Y-110374D1*
X-1465879Y-111959D1*
X-1458170Y-114092D1*
X-1450631Y-116763D1*
X-1443299Y-119960D1*
X-1436210Y-123664D1*
X-1429401Y-127860D1*
X-1422904Y-132525D1*
X-1416751Y-137636D1*
X-1410975Y-143168D1*
X-1405603Y-149094D1*
X-1400662Y-155383D1*
X-1396176Y-162006D1*
X-1392169Y-168928D1*
X-1388659Y-176115D1*
X-1385665Y-183532D1*
X-1383201Y-191141D1*
X-1381279Y-198905D1*
X-1379909Y-206785D1*
X-1379099Y-214742D1*
X-1378850Y-222250D1*
X-1378854Y-223250D1*
X1383490Y-949717D2*
X1605290D1*
Y-1196517D1*
X1378490D1*
Y-949717D1*
X1383490D1*
X1124511Y-1063104D2*
X1124827Y-1054382D1*
X1126035Y-1044459D1*
X1128113Y-1034680D1*
X1131044Y-1025123D1*
X1134806Y-1015860D1*
X1139368Y-1006965D1*
X1144696Y-998507D1*
X1150748Y-990550D1*
X1157478Y-983158D1*
X1164832Y-976387D1*
X1172754Y-970290D1*
X1181182Y-964914D1*
X1190051Y-960301D1*
X1199292Y-956488D1*
X1208833Y-953503D1*
X1218599Y-951369D1*
X1228516Y-950105D1*
X1238505Y-949718D1*
X1248490Y-950213D1*
X1258392Y-951585D1*
X1268135Y-953824D1*
X1277642Y-956913D1*
X1286841Y-960826D1*
X1295660Y-965535D1*
X1304029Y-971002D1*
X1311885Y-977184D1*
X1319165Y-984035D1*
X1325814Y-991500D1*
X1331779Y-999522D1*
X1337015Y-1008038D1*
X1341481Y-1016981D1*
X1345142Y-1026284D1*
X1347969Y-1035873D1*
X1349940Y-1045673D1*
X1351041Y-1055609D1*
X1351290Y-1063117D1*
X1351180Y-1088115D1*
X1350299Y-1098073D1*
X1348545Y-1107915D1*
X1345932Y-1117564D1*
X1342478Y-1126945D1*
X1338212Y-1135986D1*
X1333166Y-1144615D1*
X1327379Y-1152767D1*
X1320898Y-1160378D1*
X1313771Y-1167388D1*
X1306054Y-1173743D1*
X1297808Y-1179394D1*
X1289096Y-1184297D1*
X1279986Y-1188414D1*
X1270549Y-1191712D1*
X1260858Y-1194166D1*
X1250989Y-1195758D1*
X1241018Y-1196474D1*
X1231023Y-1196309D1*
X1221080Y-1195264D1*
X1211269Y-1193348D1*
X1201665Y-1190575D1*
X1192342Y-1186967D1*
X1183373Y-1182552D1*
X1174827Y-1177364D1*
X1166772Y-1171444D1*
X1159269Y-1164838D1*
X1152378Y-1157596D1*
X1146151Y-1149776D1*
X1140636Y-1141437D1*
X1135878Y-1132646D1*
X1131912Y-1123469D1*
X1128770Y-1113979D1*
X1126476Y-1104249D1*
X1125048Y-1094355D1*
X1124497Y-1084373D1*
X1124490Y-1063293D1*
X870511Y-1063104D2*
X870827Y-1054382D1*
X872035Y-1044459D1*
X874113Y-1034680D1*
X877044Y-1025123D1*
X880806Y-1015860D1*
X885368Y-1006965D1*
X890696Y-998507D1*
X896748Y-990550D1*
X903478Y-983158D1*
X910832Y-976387D1*
X918754Y-970290D1*
X927182Y-964914D1*
X936051Y-960301D1*
X945292Y-956488D1*
X954833Y-953503D1*
X964599Y-951369D1*
X974516Y-950105D1*
X984505Y-949718D1*
X994490Y-950213D1*
X1004392Y-951585D1*
X1014135Y-953824D1*
X1023642Y-956913D1*
X1032841Y-960826D1*
X1041660Y-965535D1*
X1050029Y-971002D1*
X1057885Y-977184D1*
X1065165Y-984035D1*
X1071814Y-991500D1*
X1077779Y-999522D1*
X1083015Y-1008038D1*
X1087481Y-1016981D1*
X1091142Y-1026284D1*
X1093969Y-1035873D1*
X1095940Y-1045673D1*
X1097041Y-1055609D1*
X1097290Y-1063117D1*
X1097180Y-1088115D1*
X1096299Y-1098073D1*
X1094545Y-1107915D1*
X1091932Y-1117564D1*
X1088478Y-1126945D1*
X1084212Y-1135986D1*
X1079166Y-1144615D1*
X1073379Y-1152767D1*
X1066898Y-1160378D1*
X1059771Y-1167388D1*
X1052054Y-1173743D1*
X1043808Y-1179394D1*
X1035096Y-1184297D1*
X1025986Y-1188414D1*
X1016549Y-1191712D1*
X1006858Y-1194166D1*
X996989Y-1195758D1*
X987018Y-1196474D1*
X977023Y-1196309D1*
X967080Y-1195264D1*
X957269Y-1193348D1*
X947665Y-1190575D1*
X938342Y-1186967D1*
X929373Y-1182552D1*
X920827Y-1177364D1*
X912772Y-1171444D1*
X905269Y-1164838D1*
X898378Y-1157596D1*
X892151Y-1149776D1*
X886636Y-1141437D1*
X881878Y-1132646D1*
X877912Y-1123469D1*
X874770Y-1113979D1*
X872476Y-1104249D1*
X871048Y-1094355D1*
X870497Y-1084373D1*
X870490Y-1063293D1*
X616511Y-1063104D2*
X616827Y-1054382D1*
X618035Y-1044459D1*
X620113Y-1034680D1*
X623044Y-1025123D1*
X626806Y-1015860D1*
X631368Y-1006965D1*
X636696Y-998507D1*
X642748Y-990550D1*
X649478Y-983158D1*
X656832Y-976387D1*
X664754Y-970290D1*
X673182Y-964914D1*
X682051Y-960301D1*
X691292Y-956488D1*
X700833Y-953503D1*
X710599Y-951369D1*
X720516Y-950105D1*
X730505Y-949718D1*
X740490Y-950213D1*
X750392Y-951585D1*
X760135Y-953824D1*
X769642Y-956913D1*
X778841Y-960826D1*
X787660Y-965535D1*
X796029Y-971002D1*
X803885Y-977184D1*
X811165Y-984035D1*
X817814Y-991500D1*
X823779Y-999522D1*
X829015Y-1008038D1*
X833481Y-1016981D1*
X837142Y-1026284D1*
X839969Y-1035873D1*
X841940Y-1045673D1*
X843041Y-1055609D1*
X843290Y-1063117D1*
X843180Y-1088115D1*
X842299Y-1098073D1*
X840545Y-1107915D1*
X837932Y-1117564D1*
X834478Y-1126945D1*
X830212Y-1135986D1*
X825166Y-1144615D1*
X819379Y-1152767D1*
X812898Y-1160378D1*
X805771Y-1167388D1*
X798054Y-1173743D1*
X789808Y-1179394D1*
X781096Y-1184297D1*
X771986Y-1188414D1*
X762549Y-1191712D1*
X752858Y-1194166D1*
X742989Y-1195758D1*
X733018Y-1196474D1*
X723023Y-1196309D1*
X713080Y-1195264D1*
X703269Y-1193348D1*
X693665Y-1190575D1*
X684342Y-1186967D1*
X675373Y-1182552D1*
X666827Y-1177364D1*
X658772Y-1171444D1*
X651269Y-1164838D1*
X644378Y-1157596D1*
X638151Y-1149776D1*
X632636Y-1141437D1*
X627878Y-1132646D1*
X623912Y-1123469D1*
X620770Y-1113979D1*
X618476Y-1104249D1*
X617048Y-1094355D1*
X616497Y-1084373D1*
X616490Y-1063332D1*
X108491Y-1063119D2*
X108754Y-1055379D1*
X109581Y-1047424D1*
X110967Y-1039546D1*
X112904Y-1031786D1*
X115383Y-1024182D1*
X118393Y-1016771D1*
X121917Y-1009591D1*
X125939Y-1002677D1*
X130438Y-996064D1*
X135391Y-989785D1*
X140776Y-983870D1*
X146563Y-978350D1*
X152726Y-973251D1*
X159232Y-968599D1*
X166051Y-964418D1*
X173147Y-960727D1*
X180485Y-957546D1*
X188030Y-954890D1*
X195743Y-952772D1*
X203586Y-951204D1*
X211520Y-950192D1*
X219505Y-949742D1*
X227503Y-949856D1*
X235472Y-950533D1*
X243374Y-951770D1*
X251170Y-953562D1*
X258819Y-955898D1*
X266285Y-958768D1*
X273530Y-962157D1*
X280518Y-966048D1*
X287214Y-970422D1*
X293586Y-975257D1*
X299600Y-980529D1*
X305228Y-986212D1*
X310442Y-992278D1*
X315215Y-998696D1*
X319524Y-1005435D1*
X323347Y-1012460D1*
X326665Y-1019738D1*
X329462Y-1027231D1*
X331724Y-1034903D1*
X333440Y-1042715D1*
X334600Y-1050629D1*
X335200Y-1058605D1*
X335290Y-1071117D1*
X335180Y-1088115D1*
X334546Y-1096088D1*
X333351Y-1103997D1*
X331602Y-1111802D1*
X329307Y-1119464D1*
X326478Y-1126945D1*
X323128Y-1134208D1*
X319275Y-1141217D1*
X314938Y-1147937D1*
X310137Y-1154335D1*
X304898Y-1160378D1*
X299245Y-1166037D1*
X293208Y-1171283D1*
X286816Y-1176091D1*
X280101Y-1180436D1*
X273096Y-1184297D1*
X265837Y-1187655D1*
X258359Y-1190493D1*
X250699Y-1192796D1*
X242896Y-1194554D1*
X234989Y-1195758D1*
X227017Y-1196401D1*
X219019Y-1196480D1*
X211035Y-1195996D1*
X203105Y-1194950D1*
X195269Y-1193348D1*
X187565Y-1191197D1*
X180032Y-1188509D1*
X172708Y-1185296D1*
X165627Y-1181575D1*
X158827Y-1177364D1*
X152341Y-1172685D1*
X146200Y-1167560D1*
X140436Y-1162014D1*
X135077Y-1156077D1*
X130151Y-1149776D1*
X125680Y-1143143D1*
X121688Y-1136212D1*
X118195Y-1129017D1*
X115217Y-1121594D1*
X112770Y-1113979D1*
X110866Y-1106211D1*
X109515Y-1098327D1*
X108722Y-1090368D1*
X108491Y-1083119D1*
X108490Y-1063371D1*
X-1360940Y-946324D2*
X-1139140D1*
Y-1193124D1*
X-1365940D1*
Y-946324D1*
X-1360940D1*
X-1619919Y-1059711D2*
X-1619603Y-1050989D1*
X-1618395Y-1041065D1*
X-1616317Y-1031287D1*
X-1613386Y-1021729D1*
X-1609624Y-1012467D1*
X-1605062Y-1003572D1*
X-1599734Y-995114D1*
X-1593682Y-987157D1*
X-1586952Y-979765D1*
X-1579598Y-972993D1*
X-1571676Y-966896D1*
X-1563248Y-961520D1*
X-1554379Y-956908D1*
X-1545138Y-953094D1*
X-1535597Y-950109D1*
X-1525831Y-947976D1*
X-1515914Y-946711D1*
X-1505925Y-946325D1*
X-1495940Y-946820D1*
X-1486038Y-948192D1*
X-1476295Y-950431D1*
X-1466788Y-953519D1*
X-1457589Y-957433D1*
X-1448770Y-962141D1*
X-1440401Y-967608D1*
X-1432545Y-973791D1*
X-1425265Y-980642D1*
X-1418616Y-988107D1*
X-1412651Y-996128D1*
X-1407415Y-1004644D1*
X-1402949Y-1013588D1*
X-1399288Y-1022891D1*
X-1396461Y-1032479D1*
X-1394490Y-1042280D1*
X-1393389Y-1052216D1*
X-1393140Y-1059724D1*
X-1393250Y-1084722D1*
X-1394131Y-1094680D1*
X-1395885Y-1104521D1*
X-1398498Y-1114170D1*
X-1401952Y-1123552D1*
X-1406218Y-1132592D1*
X-1411264Y-1141222D1*
X-1417051Y-1149374D1*
X-1423532Y-1156985D1*
X-1430659Y-1163995D1*
X-1438376Y-1170350D1*
X-1446622Y-1176001D1*
X-1455334Y-1180904D1*
X-1464444Y-1185020D1*
X-1473881Y-1188319D1*
X-1483572Y-1190773D1*
X-1493441Y-1192364D1*
X-1503412Y-1193080D1*
X-1513407Y-1192915D1*
X-1523350Y-1191871D1*
X-1533161Y-1189954D1*
X-1542765Y-1187182D1*
X-1552088Y-1183574D1*
X-1561057Y-1179159D1*
X-1569603Y-1173971D1*
X-1577658Y-1168051D1*
X-1585161Y-1161444D1*
X-1592052Y-1154203D1*
X-1598279Y-1146382D1*
X-1603794Y-1138044D1*
X-1608552Y-1129252D1*
X-1612518Y-1120076D1*
X-1615660Y-1110586D1*
X-1617954Y-1100856D1*
X-1619382Y-1090961D1*
X-1619933Y-1080980D1*
X-1619940Y-1060017D1*
X77600Y-111600D2*
X303400D1*
Y-338400D1*
X76600D1*
Y-111600D1*
X77600D1*
X603290Y-229998D2*
X602409Y-239956D1*
X600655Y-249798D1*
X598042Y-259447D1*
X594588Y-268828D1*
X590322Y-277869D1*
X585276Y-286499D1*
X579489Y-294651D1*
X573008Y-302261D1*
X565881Y-309271D1*
X558164Y-315627D1*
X549918Y-321278D1*
X541206Y-326181D1*
X532096Y-330297D1*
X522659Y-333595D1*
X512968Y-336050D1*
X503099Y-337641D1*
X493128Y-338357D1*
X483133Y-338192D1*
X473190Y-337147D1*
X463379Y-335231D1*
X453775Y-332458D1*
X444452Y-328850D1*
X435483Y-324435D1*
X426937Y-319248D1*
X418882Y-313328D1*
X411379Y-306721D1*
X404488Y-299480D1*
X398261Y-291659D1*
X392746Y-283321D1*
X387988Y-274529D1*
X384022Y-265352D1*
X380880Y-255862D1*
X378586Y-246132D1*
X377158Y-236238D1*
X376607Y-226257D1*
X376937Y-216265D1*
X378145Y-206342D1*
X380223Y-196563D1*
X383154Y-187006D1*
X386916Y-177744D1*
X391478Y-168849D1*
X396806Y-160390D1*
X402858Y-152434D1*
X409588Y-145041D1*
X416942Y-138270D1*
X424864Y-132173D1*
X433292Y-126797D1*
X442161Y-122185D1*
X451402Y-118371D1*
X460943Y-115386D1*
X470709Y-113253D1*
X480626Y-111988D1*
X490615Y-111602D1*
X500600Y-112096D1*
X510502Y-113469D1*
X520245Y-115708D1*
X529752Y-118796D1*
X538951Y-122710D1*
X547770Y-127418D1*
X556139Y-132885D1*
X563995Y-139068D1*
X571275Y-145918D1*
X577924Y-153383D1*
X583889Y-161405D1*
X589125Y-169921D1*
X593591Y-178865D1*
X597252Y-188167D1*
X600079Y-197756D1*
X602050Y-207556D1*
X603151Y-217492D1*
X603400Y-225000D1*
X603290Y-229998D1*
X903290D2*
X902409Y-239956D1*
X900655Y-249798D1*
X898042Y-259447D1*
X894588Y-268828D1*
X890322Y-277869D1*
X885276Y-286499D1*
X879489Y-294651D1*
X873008Y-302261D1*
X865881Y-309271D1*
X858164Y-315627D1*
X849918Y-321278D1*
X841206Y-326181D1*
X832096Y-330297D1*
X822659Y-333595D1*
X812968Y-336050D1*
X803099Y-337641D1*
X793128Y-338357D1*
X783133Y-338192D1*
X773190Y-337147D1*
X763379Y-335231D1*
X753775Y-332458D1*
X744452Y-328850D1*
X735483Y-324435D1*
X726937Y-319248D1*
X718882Y-313328D1*
X711379Y-306721D1*
X704488Y-299480D1*
X698261Y-291659D1*
X692746Y-283321D1*
X687988Y-274529D1*
X684022Y-265352D1*
X680880Y-255862D1*
X678586Y-246132D1*
X677158Y-236238D1*
X676607Y-226257D1*
X676937Y-216265D1*
X678145Y-206342D1*
X680223Y-196563D1*
X683154Y-187006D1*
X686916Y-177744D1*
X691478Y-168849D1*
X696806Y-160390D1*
X702858Y-152434D1*
X709588Y-145041D1*
X716942Y-138270D1*
X724864Y-132173D1*
X733292Y-126797D1*
X742161Y-122185D1*
X751402Y-118371D1*
X760943Y-115386D1*
X770709Y-113253D1*
X780626Y-111988D1*
X790615Y-111602D1*
X800600Y-112096D1*
X810502Y-113469D1*
X820245Y-115708D1*
X829752Y-118796D1*
X838951Y-122710D1*
X847770Y-127418D1*
X856139Y-132885D1*
X863995Y-139068D1*
X871275Y-145918D1*
X877924Y-153383D1*
X883889Y-161405D1*
X889125Y-169921D1*
X893591Y-178865D1*
X897252Y-188167D1*
X900079Y-197756D1*
X902050Y-207556D1*
X903151Y-217492D1*
X903400Y-225000D1*
X903290Y-229998D1*
X-308383Y-149996D2*
X-308264Y-143338D1*
X-307551Y-133365D1*
X-306229Y-123454D1*
X-304304Y-113643D1*
X-301782Y-103968D1*
X-298673Y-94465D1*
X-294989Y-85170D1*
X-290743Y-76118D1*
X-285951Y-67343D1*
X-280632Y-58877D1*
X-274805Y-50752D1*
X-268492Y-42998D1*
X-261716Y-35646D1*
X-254504Y-28721D1*
X-246881Y-22251D1*
X-238877Y-16259D1*
X-230522Y-10768D1*
X-221846Y-5798D1*
X-212882Y-1368D1*
X-203665Y2506D1*
X-194228Y5808D1*
X-184606Y8527D1*
X-174836Y10653D1*
X-164954Y12177D1*
X-154998Y13094D1*
X-145004Y13400D1*
X-135011Y13094D1*
X-125054Y12178D1*
X-115173Y10655D1*
X-105403Y8529D1*
X-95781Y5811D1*
X-86343Y2509D1*
X-77126Y-1364D1*
X-68162Y-5794D1*
X-59486Y-10763D1*
X-51130Y-16254D1*
X-43126Y-22246D1*
X-35503Y-28716D1*
X-28290Y-35640D1*
X-21514Y-42992D1*
X-15200Y-50745D1*
X-9373Y-58869D1*
X-4053Y-67335D1*
X739Y-76110D1*
X4985Y-85162D1*
X8670Y-94457D1*
X11780Y-103960D1*
X14302Y-113635D1*
X16228Y-123446D1*
X17550Y-133356D1*
X18264Y-143329D1*
X18400Y-155000D1*
X18324Y-304999D1*
X17712Y-314979D1*
X16491Y-324903D1*
X14666Y-334733D1*
X12243Y-344433D1*
X9231Y-353967D1*
X5641Y-363299D1*
X1488Y-372394D1*
X-3214Y-381218D1*
X-8447Y-389738D1*
X-14191Y-397921D1*
X-20425Y-405739D1*
X-27125Y-413160D1*
X-34267Y-420157D1*
X-41823Y-426705D1*
X-49766Y-432778D1*
X-58065Y-438354D1*
X-66690Y-443412D1*
X-75608Y-447933D1*
X-84785Y-451901D1*
X-94189Y-455299D1*
X-103782Y-458116D1*
X-113530Y-460341D1*
X-123395Y-461965D1*
X-133342Y-462984D1*
X-143332Y-463391D1*
X-153328Y-463188D1*
X-163293Y-462373D1*
X-173190Y-460950D1*
X-182981Y-458924D1*
X-192630Y-456304D1*
X-202101Y-453098D1*
X-211358Y-449319D1*
X-220366Y-444981D1*
X-229092Y-440100D1*
X-237503Y-434695D1*
X-245568Y-428785D1*
X-253257Y-422393D1*
X-260540Y-415543D1*
X-267390Y-408260D1*
X-273782Y-400572D1*
X-279692Y-392507D1*
X-285098Y-384096D1*
X-289979Y-375370D1*
X-294317Y-366362D1*
X-298097Y-357105D1*
X-301303Y-347634D1*
X-303923Y-337986D1*
X-305949Y-328194D1*
X-307372Y-318298D1*
X-308187Y-308333D1*
X-308400Y-295000D1*
Y-150372D1*
X961617Y-149996D2*
X961736Y-143338D1*
X962449Y-133365D1*
X963771Y-123454D1*
X965696Y-113643D1*
X968218Y-103968D1*
X971327Y-94465D1*
X975011Y-85170D1*
X979257Y-76118D1*
X984049Y-67343D1*
X989368Y-58877D1*
X995195Y-50752D1*
X1001508Y-42998D1*
X1008284Y-35646D1*
X1015496Y-28721D1*
X1023119Y-22251D1*
X1031123Y-16259D1*
X1039478Y-10768D1*
X1048154Y-5798D1*
X1057118Y-1368D1*
X1066335Y2506D1*
X1075772Y5808D1*
X1085394Y8527D1*
X1095164Y10653D1*
X1105046Y12177D1*
X1115002Y13094D1*
X1124996Y13400D1*
X1134989Y13094D1*
X1144946Y12178D1*
X1154827Y10655D1*
X1164597Y8529D1*
X1174219Y5811D1*
X1183657Y2509D1*
X1192874Y-1364D1*
X1201838Y-5794D1*
X1210514Y-10763D1*
X1218870Y-16254D1*
X1226874Y-22246D1*
X1234497Y-28716D1*
X1241710Y-35640D1*
X1248486Y-42992D1*
X1254800Y-50745D1*
X1260627Y-58869D1*
X1265947Y-67335D1*
X1270739Y-76110D1*
X1274985Y-85162D1*
X1278670Y-94457D1*
X1281780Y-103960D1*
X1284302Y-113635D1*
X1286228Y-123446D1*
X1287550Y-133356D1*
X1288264Y-143329D1*
X1288401Y-155001D1*
X1288324Y-304999D1*
X1287712Y-314979D1*
X1286491Y-324903D1*
X1284666Y-334733D1*
X1282243Y-344433D1*
X1279231Y-353967D1*
X1275641Y-363299D1*
X1271488Y-372394D1*
X1266786Y-381218D1*
X1261553Y-389738D1*
X1255809Y-397921D1*
X1249575Y-405739D1*
X1242875Y-413160D1*
X1235733Y-420157D1*
X1228177Y-426705D1*
X1220234Y-432778D1*
X1211935Y-438354D1*
X1203310Y-443412D1*
X1194392Y-447933D1*
X1185215Y-451901D1*
X1175811Y-455299D1*
X1166218Y-458116D1*
X1156470Y-460341D1*
X1146605Y-461965D1*
X1136658Y-462984D1*
X1126668Y-463391D1*
X1116672Y-463188D1*
X1106707Y-462373D1*
X1096810Y-460950D1*
X1087019Y-458924D1*
X1077370Y-456304D1*
X1067899Y-453098D1*
X1058642Y-449319D1*
X1049634Y-444981D1*
X1040908Y-440100D1*
X1032497Y-434695D1*
X1024432Y-428785D1*
X1016743Y-422393D1*
X1009460Y-415543D1*
X1002610Y-408260D1*
X996218Y-400572D1*
X990308Y-392507D1*
X984902Y-384096D1*
X980021Y-375370D1*
X975683Y-366362D1*
X971903Y-357105D1*
X968697Y-347634D1*
X966077Y-337986D1*
X964051Y-328194D1*
X962628Y-318298D1*
X961813Y-308333D1*
X961601Y-295001D1*
Y-150411D1*
X564290Y-947612D2*
X564282Y-992101D1*
X569779Y-999522D1*
X575015Y-1008038D1*
X579481Y-1016981D1*
X583142Y-1026284D1*
X585969Y-1035873D1*
X587940Y-1045673D1*
X589041Y-1055609D1*
X589290Y-1063117D1*
X589180Y-1088115D1*
X588299Y-1098073D1*
X586545Y-1107915D1*
X583932Y-1117564D1*
X580478Y-1126945D1*
X576212Y-1135986D1*
X571166Y-1144615D1*
X565379Y-1152767D1*
X558898Y-1160378D1*
X551771Y-1167388D1*
X544054Y-1173743D1*
X535808Y-1179394D1*
X527096Y-1184297D1*
X517986Y-1188414D1*
X508549Y-1191712D1*
X498858Y-1194166D1*
X488989Y-1195758D1*
X479018Y-1196474D1*
X469023Y-1196309D1*
X459080Y-1195264D1*
X449269Y-1193348D1*
X439665Y-1190575D1*
X430342Y-1186967D1*
X421373Y-1182552D1*
X412827Y-1177364D1*
X404772Y-1171444D1*
X397269Y-1164838D1*
X390378Y-1157596D1*
X384151Y-1149776D1*
X378636Y-1141437D1*
X373878Y-1132646D1*
X369912Y-1123469D1*
X366770Y-1113979D1*
X364476Y-1104249D1*
X363048Y-1094355D1*
X362497Y-1084373D1*
X362552Y-1059374D1*
X363322Y-1049407D1*
X364967Y-1039546D1*
X367473Y-1029869D1*
X370823Y-1020450D1*
X374989Y-1011363D1*
X379939Y-1002677D1*
X385634Y-994462D1*
X387495Y-992124D1*
X387490Y-984152D1*
X125747Y-722427D1*
X-241195Y-722420D1*
X-246189Y-722182D1*
X-251161Y-721662D1*
X-256096Y-720862D1*
X-260978Y-719784D1*
X-265791Y-718431D1*
X-270520Y-716809D1*
X-275149Y-714922D1*
X-279665Y-712777D1*
X-284052Y-710379D1*
X-288296Y-707738D1*
X-292385Y-704861D1*
X-296304Y-701757D1*
X-301992Y-696545D1*
X-502474Y-496039D1*
X-505837Y-492340D1*
X-508985Y-488456D1*
X-511908Y-484401D1*
X-514598Y-480187D1*
X-517045Y-475827D1*
X-519242Y-471336D1*
X-521181Y-466729D1*
X-522857Y-462018D1*
X-524264Y-457221D1*
X-525397Y-452352D1*
X-526254Y-447427D1*
X-526830Y-442461D1*
X-527167Y-434753D1*
X-527150Y185052D1*
X-526912Y190046D1*
X-526392Y195018D1*
X-525592Y199953D1*
X-524514Y204835D1*
X-523162Y209648D1*
X-521539Y214376D1*
X-519653Y219006D1*
X-517507Y223521D1*
X-515110Y227908D1*
X-512468Y232153D1*
X-509591Y236241D1*
X-506487Y240160D1*
X-501275Y245848D1*
X280932Y1028055D1*
X284565Y1031489D1*
X288387Y1034711D1*
X292385Y1037713D1*
X296546Y1040484D1*
X300858Y1043015D1*
X305305Y1045298D1*
X309875Y1047326D1*
X314551Y1049093D1*
X319320Y1050593D1*
X324167Y1051820D1*
X329075Y1052772D1*
X334029Y1053444D1*
X339013Y1053836D1*
X344011Y1053945D1*
X349007Y1053771D1*
X353986Y1053316D1*
X358930Y1052579D1*
X363826Y1051564D1*
X368656Y1050274D1*
X373405Y1048713D1*
X378059Y1046886D1*
X382601Y1044799D1*
X387019Y1042459D1*
X391297Y1039872D1*
X395422Y1037048D1*
X399381Y1033995D1*
X403161Y1030723D1*
X406750Y1027243D1*
X410137Y1023565D1*
X413310Y1019702D1*
X416260Y1015665D1*
X418976Y1011469D1*
X421452Y1007125D1*
X423677Y1002649D1*
X425646Y998053D1*
X427353Y993354D1*
X428790Y988566D1*
X429955Y983704D1*
X430843Y978785D1*
X431452Y973822D1*
X431779Y968834D1*
X431824Y963835D1*
X431585Y958841D1*
X431065Y953869D1*
X430265Y948934D1*
X429187Y944052D1*
X427835Y939239D1*
X426213Y934510D1*
X424326Y929881D1*
X422180Y925365D1*
X419783Y920978D1*
X417141Y916734D1*
X414264Y912645D1*
X411160Y908726D1*
X405948Y903038D1*
X-350366Y146724D1*
X-350367Y-398125D1*
X-202865Y-545638D1*
X162373Y-545637D1*
X167371Y-545778D1*
X172352Y-546202D1*
X177301Y-546906D1*
X182203Y-547889D1*
X187041Y-549148D1*
X191801Y-550678D1*
X196466Y-552475D1*
X201022Y-554533D1*
X205455Y-556845D1*
X209750Y-559404D1*
X213893Y-562201D1*
X217872Y-565229D1*
X221687Y-568490D1*
X235488Y-582135D1*
X538398Y-885045D1*
X541832Y-888679D1*
X545055Y-892501D1*
X548056Y-896499D1*
X550827Y-900660D1*
X553358Y-904971D1*
X555641Y-909419D1*
X557670Y-913988D1*
X559436Y-918665D1*
X560936Y-923434D1*
X562163Y-928280D1*
X563115Y-933188D1*
X563788Y-938142D1*
X564180Y-943145D1*
X-574973Y-152868D2*
Y-945603D1*
X-567752Y-951257D1*
X-564079Y-954649D1*
X-560605Y-958243D1*
X-557339Y-962028D1*
X-554292Y-965992D1*
X-551474Y-970121D1*
X-548894Y-974404D1*
X-546560Y-978825D1*
X-544480Y-983371D1*
X-542660Y-988027D1*
X-541107Y-992779D1*
X-539824Y-997611D1*
X-538817Y-1002508D1*
X-538088Y-1007454D1*
X-537640Y-1012433D1*
X-537473Y-1017863D1*
X-537615Y-1022861D1*
X-538038Y-1027842D1*
X-538743Y-1032791D1*
X-539726Y-1037693D1*
X-540985Y-1042531D1*
X-542515Y-1047291D1*
X-544312Y-1051956D1*
X-546370Y-1056512D1*
X-548682Y-1060945D1*
X-551241Y-1065240D1*
X-554038Y-1069383D1*
X-557066Y-1073362D1*
X-560313Y-1077163D1*
X-563770Y-1080774D1*
X-567426Y-1084184D1*
X-571268Y-1087382D1*
X-575286Y-1090358D1*
X-579465Y-1093102D1*
X-583792Y-1095605D1*
X-588254Y-1097859D1*
X-592837Y-1099858D1*
X-597525Y-1101595D1*
X-602304Y-1103063D1*
X-607158Y-1104259D1*
X-612072Y-1105179D1*
X-617030Y-1105820D1*
X-622016Y-1106179D1*
X-627015Y-1106256D1*
X-632010Y-1106050D1*
X-636985Y-1105562D1*
X-641925Y-1104794D1*
X-646814Y-1103747D1*
X-651636Y-1102426D1*
X-656375Y-1100835D1*
X-661016Y-1098978D1*
X-665546Y-1096861D1*
X-669948Y-1094492D1*
X-674210Y-1091878D1*
X-678316Y-1089027D1*
X-682255Y-1085949D1*
X-686014Y-1082652D1*
X-689581Y-1079149D1*
X-692943Y-1075450D1*
X-696091Y-1071566D1*
X-699015Y-1067511D1*
X-701705Y-1063296D1*
X-704152Y-1058937D1*
X-706349Y-1054446D1*
X-708288Y-1049838D1*
X-709964Y-1045128D1*
X-711371Y-1040331D1*
X-712504Y-1035462D1*
X-713360Y-1030536D1*
X-713937Y-1025570D1*
X-714232Y-1020580D1*
X-714244Y-1015580D1*
X-713973Y-1010588D1*
X-713421Y-1005620D1*
X-712589Y-1000690D1*
X-711480Y-995815D1*
X-710096Y-991011D1*
X-708444Y-986293D1*
X-706527Y-981676D1*
X-704352Y-977174D1*
X-701927Y-972803D1*
X-699258Y-968575D1*
X-696354Y-964506D1*
X-693225Y-960607D1*
X-689880Y-956891D1*
X-686331Y-953370D1*
X-682589Y-950055D1*
X-676762Y-945623D1*
X-676773Y-152844D1*
X-682255Y-148669D1*
X-686014Y-145372D1*
X-689581Y-141869D1*
X-692943Y-138170D1*
X-696091Y-134286D1*
X-699015Y-130231D1*
X-701705Y-126016D1*
X-704152Y-121657D1*
X-706349Y-117166D1*
X-708288Y-112558D1*
X-709964Y-107848D1*
X-711371Y-103051D1*
X-712504Y-98182D1*
X-713360Y-93256D1*
X-713937Y-88290D1*
X-714232Y-83300D1*
X-714244Y-78300D1*
X-713973Y-73308D1*
X-713421Y-68340D1*
X-712589Y-63410D1*
X-711480Y-58535D1*
X-710096Y-53731D1*
X-708444Y-49013D1*
X-706527Y-44396D1*
X-704352Y-39894D1*
X-701927Y-35523D1*
X-699258Y-31295D1*
X-696354Y-27226D1*
X-693225Y-23327D1*
X-689880Y-19611D1*
X-686331Y-16090D1*
X-682589Y-12775D1*
X-678665Y-9678D1*
X-674572Y-6807D1*
X-670323Y-4172D1*
X-665933Y-1781D1*
X-661414Y358D1*
X-656781Y2237D1*
X-652050Y3852D1*
X-647235Y5197D1*
X-642352Y6267D1*
X-637415Y7060D1*
X-632442Y7572D1*
X-627448Y7803D1*
X-622449Y7750D1*
X-617461Y7416D1*
X-612500Y6799D1*
X-607582Y5904D1*
X-602722Y4731D1*
X-597936Y3286D1*
X-593239Y1572D1*
X-588647Y-404D1*
X-584174Y-2636D1*
X-579834Y-5118D1*
X-575642Y-7842D1*
X-571610Y-10798D1*
X-567752Y-13977D1*
X-564079Y-17369D1*
X-560605Y-20963D1*
X-557339Y-24748D1*
X-554292Y-28712D1*
X-551474Y-32841D1*
X-548894Y-37124D1*
X-546560Y-41545D1*
X-544480Y-46091D1*
X-542660Y-50747D1*
X-541107Y-55499D1*
X-539824Y-60331D1*
X-538817Y-65228D1*
X-538088Y-70174D1*
X-537640Y-75153D1*
X-537473Y-80583D1*
X-537615Y-85581D1*
X-538038Y-90562D1*
X-538743Y-95511D1*
X-539726Y-100413D1*
X-540985Y-105251D1*
X-542515Y-110011D1*
X-544312Y-114676D1*
X-546370Y-119232D1*
X-548682Y-123665D1*
X-551241Y-127960D1*
X-554038Y-132103D1*
X-557066Y-136082D1*
X-560313Y-139883D1*
X-563770Y-143494D1*
X-567426Y-146904D1*
X-571268Y-150102D1*
X-574987Y-152857D1*
X-574965Y-945618D2*
X-571610Y-948078D1*
X-567752Y-951257D1*
X-564079Y-954649D1*
X-560605Y-958243D1*
X-557339Y-962028D1*
X-554292Y-965992D1*
X-551474Y-970121D1*
X-548894Y-974404D1*
X-546560Y-978825D1*
X-544480Y-983371D1*
X-542660Y-988027D1*
X-541107Y-992779D1*
X-539824Y-997611D1*
X-538817Y-1002508D1*
X-538088Y-1007454D1*
X-537640Y-1012433D1*
X-537473Y-1017863D1*
X-537615Y-1022861D1*
X-538038Y-1027842D1*
X-538743Y-1032791D1*
X-539726Y-1037693D1*
X-540985Y-1042531D1*
X-542515Y-1047291D1*
X-544312Y-1051956D1*
X-546370Y-1056512D1*
X-548682Y-1060945D1*
X-551241Y-1065240D1*
X-554038Y-1069383D1*
X-557066Y-1073362D1*
X-560313Y-1077163D1*
X-563770Y-1080774D1*
X-567426Y-1084184D1*
X-571268Y-1087382D1*
X-575286Y-1090358D1*
X-579465Y-1093102D1*
X-583792Y-1095605D1*
X-588254Y-1097859D1*
X-592837Y-1099858D1*
X-597525Y-1101595D1*
X-602304Y-1103063D1*
X-607158Y-1104259D1*
X-612072Y-1105179D1*
X-617030Y-1105820D1*
X-622016Y-1106179D1*
X-627015Y-1106256D1*
X-632010Y-1106050D1*
X-636985Y-1105562D1*
X-641925Y-1104794D1*
X-646814Y-1103747D1*
X-651636Y-1102426D1*
X-656375Y-1100835D1*
X-661016Y-1098978D1*
X-665546Y-1096861D1*
X-669948Y-1094492D1*
X-674210Y-1091878D1*
X-678316Y-1089027D1*
X-682255Y-1085949D1*
X-686014Y-1082652D1*
X-689581Y-1079149D1*
X-692943Y-1075450D1*
X-696091Y-1071566D1*
X-699015Y-1067511D1*
X-701705Y-1063296D1*
X-704152Y-1058937D1*
X-706349Y-1054446D1*
X-708288Y-1049838D1*
X-709964Y-1045128D1*
X-711371Y-1040331D1*
X-712504Y-1035462D1*
X-713360Y-1030536D1*
X-713937Y-1025570D1*
X-714232Y-1020580D1*
X-714244Y-1015580D1*
X-713973Y-1010588D1*
X-713421Y-1005620D1*
X-712589Y-1000690D1*
X-711480Y-995815D1*
X-710096Y-991011D1*
X-708444Y-986293D1*
X-706527Y-981676D1*
X-704352Y-977174D1*
X-701927Y-972803D1*
X-699258Y-968575D1*
X-696354Y-964506D1*
X-693225Y-960607D1*
X-689880Y-956891D1*
X-686331Y-953370D1*
X-682589Y-950055D1*
X-676762Y-945623D1*
X1633980Y1369000D2*
X-1566798D1*
X-1634002Y1301804D1*
X-1634000Y-1301801D1*
X-1566804Y-1369002D1*
X1633994Y-1369000D1*
X1634000Y1368988D1*
X-1492250Y-108870D2*
D19*
Y-335630D1*
X-1605630Y-222250D2*
X-1378870D1*
X221890Y-949736D2*
Y-1196497D1*
X108510Y-1073117D2*
X335271D1*
X190000Y-111620D2*
Y-338381D1*
X76620Y-225000D2*
X303381D1*
D23*
X-1492250Y539750D3*
D24*
Y285750D3*
Y31750D3*
Y-222250D3*
D25*
X1491890Y-1073117D3*
D26*
X1237890D3*
X983890D3*
X729890D3*
X475890D3*
X221890D3*
D25*
X-1252540Y-1069723D3*
D26*
X-1506540D3*
D23*
X190000Y-225000D3*
D24*
X490000D3*
X790000D3*
D29*
X-145000D3*
X1125000D3*
M02*
